TestCreationAction 1638626439522 TranslatorTest.java ADD void testTranslationPhraseContainingPunctuations()/2 METHOD ADD void testTranslationPhraseContainingPunctuations()/2 METHOD
TestCreationAction 1638626445037 TranslatorTest.java RENAME testTranslationPhraseContainingPunctuations()/2=>void testTranslationPhraseContainingTitleCaseWords() METHOD RENAME testTranslationPhraseContainingPunctuations()/2=>void testTranslationPhraseContainingTitleCaseWords() METHOD
TestCreationAction 1638626482747 TranslatorTest.java CHANGE TranslatorTest.java CLASS CHANGE TranslatorTest.java CLASS
EditAction 1638626482749 TranslatorTest.java 2819 12 39 12
EditAction 1638626482783 TranslatorTest.java 2819 12 39 12
EditAction 1638626483671 TranslatorTest.java 2819 12 39 12
TestFailureAction 1638626483770 TranslatorTest.java FAIL
CodeEditingAction 1638626572173 Translator.java ADD Translator.java CLASS
CodeEditingAction 1638626651926 Translator.java ADD Translator.java CLASS
CodeEditingAction 1638626653339 Translator.java ADD boolean wordIsTitleCase(String) METHOD
CodeEditingAction 1638626678866 Translator.java ADD Translator.java CLASS
CodeEditingAction 1638626783472 Translator.java ADD Translator.java CLASS
CodeEditingAction 1638626900955 Translator.java CHANGE Translator.java CLASS
EditAction 1638626900992 Translator.java 3281 12 28 0
EditAction 1638626900996 TranslatorTest.java 2819 12 39 12
TestFailureAction 1638626902045 TranslatorTest.java FAIL
EditAction 1638626902075 Translator.java 3281 12 28 0
EditAction 1638626925921 Translator.java 3281 12 28 0
EditAction 1638626925925 Translator.java 3281 12 28 0
EditAction 1638626926079 Translator.java 3281 12 28 0
EditAction 1638626926722 Translator.java 3281 12 28 0
EditAction 1638626926726 Translator.java 3281 12 28 0
EditAction 1638626927084 Translator.java 3281 12 28 0
EditAction 1638626929018 Translator.java 3281 12 28 0
EditAction 1638626929022 Translator.java 3281 12 28 0
EditAction 1638626929176 Translator.java 3281 12 28 0
EditAction 1638626930610 Translator.java 3281 12 28 0
EditAction 1638626930614 Translator.java 3281 12 28 0
EditAction 1638626930719 Translator.java 3281 12 28 0
EditAction 1638626933834 Translator.java 3281 12 28 0
EditAction 1638626933838 Translator.java 3281 12 28 0
EditAction 1638626933943 Translator.java 3281 12 28 0
EditAction 1638626935915 Translator.java 3281 12 28 0
EditAction 1638626935919 Translator.java 3281 12 28 0
EditAction 1638626936024 Translator.java 3281 12 28 0
EditAction 1638626954571 Translator.java 3281 12 28 0
EditAction 1638626954576 Translator.java 3281 12 28 0
EditAction 1638626954581 Translator.java 3281 12 28 0
EditAction 1638626954587 Translator.java 3281 12 28 0
EditAction 1638626954591 Translator.java 3281 12 28 0
EditAction 1638626954595 Translator.java 3281 12 28 0
EditAction 1638626954953 Translator.java 3281 12 28 0
TestPassAction 1638627048629 TranslatorTest.java OK
EditAction 1638627048633 Translator.java 3281 12 28 0
EditAction 1638627048637 Translator.java 3281 12 28 0
EditAction 1638627048641 Translator.java 3281 12 28 0
EditAction 1638627048645 Translator.java 3281 12 28 0
EditAction 1638627048751 Translator.java 3281 12 28 0
EditAction 1638627054534 Translator.java 3281 12 28 0
EditAction 1638627054539 Translator.java 3281 12 28 0
EditAction 1638627054543 Translator.java 3281 12 28 0
EditAction 1638627054548 Translator.java 3281 12 28 0
EditAction 1638627054552 Translator.java 3281 12 28 0
EditAction 1638627054556 Translator.java 3281 12 28 0
EditAction 1638627054828 Translator.java 3281 12 28 0
EditAction 1638627058772 Translator.java 3281 12 28 0
EditAction 1638627058775 Translator.java 3281 12 28 0
EditAction 1638627058911 Translator.java 3281 12 28 0
EditAction 1638627060904 Translator.java 3281 12 28 0
EditAction 1638627060908 Translator.java 3281 12 28 0
EditAction 1638627061013 Translator.java 3281 12 28 0
TestFailureAction 1638627184858 TranslatorTest.java FAIL
EditAction 1638627184861 Translator.java 3281 12 28 0
EditAction 1638627184865 Translator.java 3281 12 28 0
EditAction 1638627184870 Translator.java 3281 12 28 0
EditAction 1638627184875 Translator.java 3281 12 28 0
EditAction 1638627184879 Translator.java 3281 12 28 0
EditAction 1638627184883 Translator.java 3281 12 28 0
EditAction 1638627184890 Translator.java 3281 12 28 0
EditAction 1638627184894 Translator.java 3281 12 28 0
EditAction 1638627185012 Translator.java 3281 12 28 0
EditAction 1638627190353 Translator.java 3281 12 28 0
EditAction 1638627190359 Translator.java 3281 12 28 0
EditAction 1638627190364 Translator.java 3281 12 28 0
EditAction 1638627190368 Translator.java 3281 12 28 0
EditAction 1638627190373 Translator.java 3281 12 28 0
EditAction 1638627190377 Translator.java 3281 12 28 0
EditAction 1638627190382 Translator.java 3281 12 28 0
EditAction 1638627190386 Translator.java 3281 12 28 0
EditAction 1638627190628 Translator.java 3281 12 28 0
EditAction 1638627194164 Translator.java 3281 12 28 0
EditAction 1638627194168 Translator.java 3281 12 28 0
EditAction 1638627194172 Translator.java 3281 12 28 0
EditAction 1638627194176 Translator.java 3281 12 28 0
EditAction 1638627194179 Translator.java 3281 12 28 0
EditAction 1638627194192 Translator.java 3281 12 28 0
EditAction 1638627194298 Translator.java 3281 12 28 0
EditAction 1638627194710 Translator.java 3281 12 28 0
EditAction 1638627194714 Translator.java 3281 12 28 0
EditAction 1638627194718 Translator.java 3281 12 28 0
EditAction 1638627194722 Translator.java 3281 12 28 0
EditAction 1638627194726 Translator.java 3281 12 28 0
EditAction 1638627194739 Translator.java 3281 12 28 0
EditAction 1638627195174 Translator.java 3281 12 28 0
EditAction 1638627195178 Translator.java 3281 12 28 0
EditAction 1638627195182 Translator.java 3281 12 28 0
EditAction 1638627195185 Translator.java 3281 12 28 0
EditAction 1638627195198 Translator.java 3281 12 28 0
EditAction 1638627195304 Translator.java 3281 12 28 0
EditAction 1638627196160 Translator.java 3281 12 28 0
EditAction 1638627196164 Translator.java 3281 12 28 0
EditAction 1638627196168 Translator.java 3281 12 28 0
EditAction 1638627196172 Translator.java 3281 12 28 0
EditAction 1638627196176 Translator.java 3281 12 28 0
EditAction 1638627196188 Translator.java 3281 12 28 0
EditAction 1638627196309 Translator.java 3281 12 28 0
EditAction 1638627197104 Translator.java 3281 12 28 0
EditAction 1638627197108 Translator.java 3281 12 28 0
EditAction 1638627197112 Translator.java 3281 12 28 0
EditAction 1638627197116 Translator.java 3281 12 28 0
EditAction 1638627197121 Translator.java 3281 12 28 0
EditAction 1638627197133 Translator.java 3281 12 28 0
EditAction 1638627197314 Translator.java 3281 12 28 0
EditAction 1638627198257 Translator.java 3281 12 28 0
EditAction 1638627198261 Translator.java 3281 12 28 0
EditAction 1638627198265 Translator.java 3281 12 28 0
EditAction 1638627198268 Translator.java 3281 12 28 0
EditAction 1638627198283 Translator.java 3281 12 28 0
EditAction 1638627198437 Translator.java 3281 12 28 0
EditAction 1638627198852 Translator.java 3281 12 28 0
EditAction 1638627198856 Translator.java 3281 12 28 0
EditAction 1638627198860 Translator.java 3281 12 28 0
EditAction 1638627198863 Translator.java 3281 12 28 0
EditAction 1638627198866 Translator.java 3281 12 28 0
EditAction 1638627198879 Translator.java 3281 12 28 0
EditAction 1638627199442 Translator.java 3281 12 28 0
EditAction 1638627199491 Translator.java 3281 12 28 0
EditAction 1638627199495 Translator.java 3281 12 28 0
EditAction 1638627199499 Translator.java 3281 12 28 0
EditAction 1638627199503 Translator.java 3281 12 28 0
EditAction 1638627199514 Translator.java 3281 12 28 0
TestFailureAction 1638627204852 TranslatorTest.java FAIL
CodeEditingAction 1638627285716 Translator.java ADD Translator.java CLASS
CodeEditingAction 1638627289948 Translator.java ADD Translator.java CLASS
CodeEditingAction 1638627290132 Translator.java ADD Translator.java CLASS
CodeEditingAction 1638627294397 Translator.java ADD Translator.java CLASS
CodeEditingAction 1638627296568 Translator.java ADD Translator.java CLASS
CodeEditingAction 1638627301269 Translator.java ADD Translator.java CLASS
CodeEditingAction 1638627311040 Translator.java ADD Translator.java CLASS
CodeEditingAction 1638627312027 Translator.java ADD Translator.java CLASS
CodeEditingAction 1638627314095 Translator.java ADD Translator.java CLASS
CodeEditingAction 1638627315601 Translator.java ADD Translator.java CLASS
CodeEditingAction 1638627408110 Translator.java ADD import jdk.nashorn.internal.ir.ReturnNode IMPORT
EditAction 1638627416553 Translator.java 3281 12 30 0
EditAction 1638627416556 Translator.java 3281 12 30 0
EditAction 1638627416710 Translator.java 3281 12 30 0
EditAction 1638627417338 Translator.java 3281 12 30 0
EditAction 1638627417341 Translator.java 3281 12 30 0
EditAction 1638627417714 Translator.java 3281 12 30 0
EditAction 1638627420409 Translator.java 3281 12 30 0
EditAction 1638627420413 Translator.java 3281 12 30 0
EditAction 1638627420518 Translator.java 3281 12 30 0
EditAction 1638627421771 Translator.java 3281 12 30 0
EditAction 1638627421774 Translator.java 3281 12 30 0
EditAction 1638627421879 Translator.java 3281 12 30 0
EditAction 1638627423654 Translator.java 3281 12 30 0
EditAction 1638627423657 Translator.java 3281 12 30 0
EditAction 1638627423762 Translator.java 3281 12 30 0
EditAction 1638627424604 Translator.java 3281 12 30 0
EditAction 1638627424608 Translator.java 3281 12 30 0
EditAction 1638627424788 Translator.java 3281 12 30 0
EditAction 1638627428671 Translator.java 3281 12 30 0
EditAction 1638627428675 Translator.java 3281 12 30 0
EditAction 1638627428780 Translator.java 3281 12 30 0
EditAction 1638627429316 Translator.java 3281 12 30 0
EditAction 1638627429319 Translator.java 3281 12 30 0
EditAction 1638627429834 Translator.java 3281 12 30 0
CodeEditingAction 1638627432859 Translator.java CHANGE Translator.java CLASS
EditAction 1638627432866 Translator.java 3398 12 30 0
EditAction 1638627432889 Translator.java 3398 12 30 0
EditAction 1638627432915 Translator.java 3398 12 30 0
EditAction 1638627432924 Translator.java 3398 12 30 0
EditAction 1638627432930 Translator.java 3398 12 30 0
EditAction 1638627432937 Translator.java 3398 12 30 0
EditAction 1638627432941 Translator.java 3398 12 30 0
EditAction 1638627432950 Translator.java 3398 12 30 0
EditAction 1638627432954 Translator.java 3398 12 30 0
EditAction 1638627432961 Translator.java 3398 12 30 0
EditAction 1638627432966 Translator.java 3398 12 30 0
EditAction 1638627432972 Translator.java 3398 12 30 0
EditAction 1638627432981 Translator.java 3398 12 30 0
EditAction 1638627432991 Translator.java 3398 12 30 0
EditAction 1638627432998 Translator.java 3398 12 30 0
EditAction 1638627433005 Translator.java 3398 12 30 0
EditAction 1638627433025 Translator.java 3398 12 30 0
EditAction 1638627433034 Translator.java 3398 12 30 0
EditAction 1638627433038 Translator.java 3398 12 30 0
EditAction 1638627433045 Translator.java 3398 12 30 0
EditAction 1638627433049 Translator.java 3398 12 30 0
EditAction 1638627433056 Translator.java 3398 12 30 0
EditAction 1638627433061 Translator.java 3398 12 30 0
EditAction 1638627433069 Translator.java 3398 12 30 0
EditAction 1638627433073 Translator.java 3398 12 30 0
EditAction 1638627433081 Translator.java 3398 12 30 0
EditAction 1638627433087 Translator.java 3398 12 30 0
EditAction 1638627433094 Translator.java 3398 12 30 0
EditAction 1638627433099 Translator.java 3398 12 30 0
EditAction 1638627433107 Translator.java 3398 12 30 0
EditAction 1638627433263 Translator.java 3398 12 30 0
EditAction 1638627433819 Translator.java 3398 12 30 0
EditAction 1638627433825 Translator.java 3398 12 30 0
EditAction 1638627433832 Translator.java 3398 12 30 0
EditAction 1638627433840 Translator.java 3398 12 30 0
EditAction 1638627433847 Translator.java 3398 12 30 0
EditAction 1638627433854 Translator.java 3398 12 30 0
EditAction 1638627433860 Translator.java 3398 12 30 0
EditAction 1638627433867 Translator.java 3398 12 30 0
EditAction 1638627433907 Translator.java 3398 12 30 0
EditAction 1638627434320 Translator.java 3398 12 30 0
TestFailureAction 1638627540822 TranslatorTest.java FAIL
EditAction 1638627540827 Translator.java 3398 12 30 0
EditAction 1638627540830 Translator.java 3398 12 30 0
EditAction 1638627540834 Translator.java 3398 12 30 0
EditAction 1638627540839 Translator.java 3398 12 30 0
EditAction 1638627540844 Translator.java 3398 12 30 0
EditAction 1638627540848 Translator.java 3398 12 30 0
EditAction 1638627540852 Translator.java 3398 12 30 0
EditAction 1638627540857 Translator.java 3398 12 30 0
EditAction 1638627541017 Translator.java 3398 12 30 0
EditAction 1638627548941 Translator.java 3398 12 30 0
EditAction 1638627548945 Translator.java 3398 12 30 0
EditAction 1638627548949 Translator.java 3398 12 30 0
EditAction 1638627548953 Translator.java 3398 12 30 0
EditAction 1638627548958 Translator.java 3398 12 30 0
EditAction 1638627548962 Translator.java 3398 12 30 0
EditAction 1638627548966 Translator.java 3398 12 30 0
EditAction 1638627548971 Translator.java 3398 12 30 0
EditAction 1638627549989 Translator.java 3398 12 30 0
EditAction 1638627554246 Translator.java 3398 12 30 0
EditAction 1638627554250 Translator.java 3398 12 30 0
EditAction 1638627554254 Translator.java 3398 12 30 0
EditAction 1638627554259 Translator.java 3398 12 30 0
EditAction 1638627554263 Translator.java 3398 12 30 0
EditAction 1638627554268 Translator.java 3398 12 30 0
EditAction 1638627554272 Translator.java 3398 12 30 0
EditAction 1638627554277 Translator.java 3398 12 30 0
EditAction 1638627554558 Translator.java 3398 12 30 0
EditAction 1638627570094 Translator.java 3398 12 30 0
EditAction 1638627570098 Translator.java 3398 12 30 0
EditAction 1638627570102 Translator.java 3398 12 30 0
EditAction 1638627570107 Translator.java 3398 12 30 0
EditAction 1638627570111 Translator.java 3398 12 30 0
EditAction 1638627570116 Translator.java 3398 12 30 0
EditAction 1638627570120 Translator.java 3398 12 30 0
EditAction 1638627570125 Translator.java 3398 12 30 0
EditAction 1638627570657 Translator.java 3398 12 30 0
EditAction 1638627570661 Translator.java 3398 12 30 0
EditAction 1638627570666 Translator.java 3398 12 30 0
EditAction 1638627570670 Translator.java 3398 12 30 0
EditAction 1638627570675 Translator.java 3398 12 30 0
EditAction 1638627570679 Translator.java 3398 12 30 0
EditAction 1638627570683 Translator.java 3398 12 30 0
EditAction 1638627570687 Translator.java 3398 12 30 0
EditAction 1638627570795 Translator.java 3398 12 30 0
EditAction 1638627582077 Translator.java 3398 12 30 0
EditAction 1638627582082 Translator.java 3398 12 30 0
EditAction 1638627582086 Translator.java 3398 12 30 0
EditAction 1638627582091 Translator.java 3398 12 30 0
EditAction 1638627582095 Translator.java 3398 12 30 0
EditAction 1638627582099 Translator.java 3398 12 30 0
EditAction 1638627582103 Translator.java 3398 12 30 0
EditAction 1638627582107 Translator.java 3398 12 30 0
EditAction 1638627582111 Translator.java 3398 12 30 0
EditAction 1638627582124 Translator.java 3398 12 30 0
EditAction 1638627582280 Translator.java 3398 12 30 0
EditAction 1638627582928 Translator.java 3398 12 30 0
EditAction 1638627582932 Translator.java 3398 12 30 0
EditAction 1638627582936 Translator.java 3398 12 30 0
EditAction 1638627582940 Translator.java 3398 12 30 0
EditAction 1638627582944 Translator.java 3398 12 30 0
EditAction 1638627582948 Translator.java 3398 12 30 0
EditAction 1638627582951 Translator.java 3398 12 30 0
EditAction 1638627582955 Translator.java 3398 12 30 0
EditAction 1638627582966 Translator.java 3398 12 30 0
EditAction 1638627583287 Translator.java 3398 12 30 0
EditAction 1638627584698 Translator.java 3398 12 30 0
EditAction 1638627584702 Translator.java 3398 12 30 0
EditAction 1638627584706 Translator.java 3398 12 30 0
EditAction 1638627584710 Translator.java 3398 12 30 0
EditAction 1638627584714 Translator.java 3398 12 30 0
EditAction 1638627584718 Translator.java 3398 12 30 0
EditAction 1638627584723 Translator.java 3398 12 30 0
EditAction 1638627584726 Translator.java 3398 12 30 0
EditAction 1638627584730 Translator.java 3398 12 30 0
EditAction 1638627584743 Translator.java 3398 12 30 0
EditAction 1638627584896 Translator.java 3398 12 30 0
EditAction 1638627585178 Translator.java 3398 12 30 0
EditAction 1638627585181 Translator.java 3398 12 30 0
EditAction 1638627585186 Translator.java 3398 12 30 0
EditAction 1638627585190 Translator.java 3398 12 30 0
EditAction 1638627585194 Translator.java 3398 12 30 0
EditAction 1638627585198 Translator.java 3398 12 30 0
EditAction 1638627585202 Translator.java 3398 12 30 0
EditAction 1638627585206 Translator.java 3398 12 30 0
EditAction 1638627585209 Translator.java 3398 12 30 0
EditAction 1638627585222 Translator.java 3398 12 30 0
EditAction 1638627585901 Translator.java 3398 12 30 0
EditAction 1638627586171 Translator.java 3398 12 30 0
EditAction 1638627586175 Translator.java 3398 12 30 0
EditAction 1638627586179 Translator.java 3398 12 30 0
EditAction 1638627586183 Translator.java 3398 12 30 0
EditAction 1638627586187 Translator.java 3398 12 30 0
EditAction 1638627586191 Translator.java 3398 12 30 0
EditAction 1638627586195 Translator.java 3398 12 30 0
EditAction 1638627586199 Translator.java 3398 12 30 0
EditAction 1638627586202 Translator.java 3398 12 30 0
EditAction 1638627586214 Translator.java 3398 12 30 0
EditAction 1638627586668 Translator.java 3398 12 30 0
EditAction 1638627586672 Translator.java 3398 12 30 0
EditAction 1638627586676 Translator.java 3398 12 30 0
EditAction 1638627586680 Translator.java 3398 12 30 0
EditAction 1638627586684 Translator.java 3398 12 30 0
EditAction 1638627586688 Translator.java 3398 12 30 0
EditAction 1638627586692 Translator.java 3398 12 30 0
EditAction 1638627586696 Translator.java 3398 12 30 0
EditAction 1638627586699 Translator.java 3398 12 30 0
EditAction 1638627586711 Translator.java 3398 12 30 0
EditAction 1638627586906 Translator.java 3398 12 30 0
EditAction 1638627587229 Translator.java 3398 12 30 0
EditAction 1638627587233 Translator.java 3398 12 30 0
EditAction 1638627587238 Translator.java 3398 12 30 0
EditAction 1638627587242 Translator.java 3398 12 30 0
EditAction 1638627587246 Translator.java 3398 12 30 0
EditAction 1638627587250 Translator.java 3398 12 30 0
EditAction 1638627587254 Translator.java 3398 12 30 0
EditAction 1638627587258 Translator.java 3398 12 30 0
EditAction 1638627587271 Translator.java 3398 12 30 0
EditAction 1638627587743 Translator.java 3398 12 30 0
EditAction 1638627587747 Translator.java 3398 12 30 0
EditAction 1638627587751 Translator.java 3398 12 30 0
EditAction 1638627587755 Translator.java 3398 12 30 0
EditAction 1638627587759 Translator.java 3398 12 30 0
EditAction 1638627587763 Translator.java 3398 12 30 0
EditAction 1638627587767 Translator.java 3398 12 30 0
EditAction 1638627587779 Translator.java 3398 12 30 0
EditAction 1638627589784 Translator.java 3398 12 30 0
EditAction 1638627589788 Translator.java 3398 12 30 0
EditAction 1638627589893 Translator.java 3398 12 30 0
EditAction 1638627590338 Translator.java 3398 12 30 0
EditAction 1638627590342 Translator.java 3398 12 30 0
EditAction 1638627590346 Translator.java 3398 12 30 0
EditAction 1638627590350 Translator.java 3398 12 30 0
EditAction 1638627590354 Translator.java 3398 12 30 0
EditAction 1638627590358 Translator.java 3398 12 30 0
EditAction 1638627590362 Translator.java 3398 12 30 0
EditAction 1638627590374 Translator.java 3398 12 30 0
TestFailureAction 1638627595189 TranslatorTest.java FAIL
TestEditingAction 1638627641231 TranslatorTest.java CHANGE TranslatorTest.java CLASS CHANGE TranslatorTest.java CLASS
EditAction 1638627641262 TranslatorTest.java 2822 12 39 12
TestFailureAction 1638627642313 TranslatorTest.java FAIL
EditAction 1638627642714 TranslatorTest.java 2822 12 39 12
TestFailureAction 1638627648454 TranslatorTest (Failed Tests first).java FAIL
CodeEditingAction 1638627747974 Translator.java CHANGE Translator.java CLASS
EditAction 1638627748004 Translator.java 3406 12 30 0
TestPassAction 1638627749075 Rerun TranslatorTest (Failed Tests first).java OK
EditAction 1638627749510 Translator.java 3406 12 30 0
CodeEditingAction 1638627874463 Translator.java ADD void translateWordStartingWithConsonant() METHOD
CodeEditingAction 1638627888450 Translator.java CHANGE Translator.java CLASS
EditAction 1638627888478 Translator.java 3341 12 28 0
TestPassAction 1638627889446 Rerun TranslatorTest (Failed Tests first).java OK
EditAction 1638627889763 Translator.java 3341 12 28 0
CodeEditingAction 1638627994167 Translator.java ADD Translator.java CLASS
CodeEditingAction 1638628013313 Translator.java ADD Translator.java CLASS
CodeEditingAction 1638628014896 Translator.java ADD Translator.java CLASS
CodeEditingAction 1638628019516 Translator.java CHANGE Translator.java CLASS
EditAction 1638628019544 Translator.java 3358 12 27 0
TestPassAction 1638628020491 Rerun TranslatorTest (Failed Tests first).java OK
EditAction 1638628020843 Translator.java 3358 12 27 0
